{"page":1,"limit":10,"explicit":false,"total":1000,"has_more":true,"list":[{"duration":311,"url":"https:\/\/www.dailymotion.com\/video\/xplun2","likes_total":0,"views_total":439},{"duration":297,"url":"https:\/\/www.dailymotion.com\/video\/x3hj8k7","likes_total":0,"views_total":153},{"duration":62,"url":"https:\/\/www.dailymotion.com\/video\/x7p66ps","likes_total":0,"views_total":19},{"duration":237,"url":"https:\/\/www.dailymotion.com\/video\/x4r51k","likes_total":0,"views_total":198},{"duration":172,"url":"https:\/\/www.dailymotion.com\/video\/x10bkwq","likes_total":0,"views_total":59},{"duration":189,"url":"https:\/\/www.dailymotion.com\/video\/x52iui","likes_total":0,"views_total":632},{"duration":258,"url":"https:\/\/www.dailymotion.com\/video\/xbv1ze","likes_total":0,"views_total":69},{"duration":189,"url":"https:\/\/www.dailymotion.com\/video\/x5rdhor","likes_total":0,"views_total":3366},{"duration":282,"url":"https:\/\/www.dailymotion.com\/video\/x343nps","likes_total":0,"views_total":10},{"duration":182,"url":"https:\/\/www.dailymotion.com\/video\/x4hn0yv","likes_total":0,"views_total":0}]}